Yotta 資料視覺化實戰
…
7-11 dataset

stores <- read_csv("http://bit.ly/711-stores")
stores
#> # A tibble: 5,175 x 36
#>    Address FaxNo  POIID POIName SpecialStore_Ki… Store_URL Telno      X
#>    <chr>   <chr>  <int> <chr>   <chr>            <chr>     <chr>  <dbl>
#>  1 台北市松山區… (02)… 170945 上弘    <NA>             <NA>      (02)… 1.22e8
#>  2 台北市松山區… (02)… 960661 中崙    <NA>             <NA>      (02)… 1.22e8
#>  3 台北市松山區… (02)… 158923 北體    <NA>             <NA>      (02)… 1.22e8
#>  4 台北市松山區… (02)… 159340 台場    <NA>             <NA>      (02)… 1.22e8
#>  5 台北市松山區… <NA>  161387 巨蛋站  <NA>             <NA>      (02)… 1.22e8
#>  6 台北市松山區… (02)… 138583 市大    <NA>             <NA>      (02)… 1.22e8
#>  7 台北市松山區… (02)… 170082 民北    <NA>             <NA>      (02)… 1.22e8
#>  8 台北市松山區… (02)… 961295 民有    <NA>             <NA>      (02)… 1.22e8
#>  9 台北市松山區… (02)… 177142 民復    <NA>             <NA>      (02)… 1.22e8
#> 10 台北市松山區… (02)… 166832 吉仁    <NA>             <NA>      (02)… 1.22e8
#> # ... with 5,165 more rows, and 28 more variables: Y <dbl>,
#> #   city_name <chr>, is7WiFi <chr>, isATM <chr>, isCityCafe <chr>,
#> #   isCorn <chr>, isDining <chr>, isFruit <chr>, isHealthStations <chr>,
#> #   isHotDog <chr>, isIbon <chr>, isIce <chr>, isIceCream <chr>,
#> #   isLavatory <chr>, isMakeup <chr>, isMisterDonuts <chr>, isMuji <chr>,
#> #   isOpenStore <chr>, isOrganic <chr>, isParking <chr>,
#> #   isStarBucks <chr>, isSweetPotato <chr>, isTea <chr>, isUnionPay <chr>,
#> #   town_name <chr>, logitude <dbl>, latitude <dbl>, company <chr>
…
各月份的電影上映數 + 類型

d <- movie %>% 
  filter(duration > 1) %>% 
  select(movie_id, release_date_str) %>% 
  inner_join(genre, by = "movie_id") %>% 
  mutate(YYMM = scales::date_format("%y-%m")(release_date_str)) %>%
  filter(YYMM >= "17-01" & YYMM < "18-01") %>% 
  group_by(genre_name, YYMM) %>% 
  tally()

d
#> # A tibble: 119 x 3
#> # Groups:   genre_name [?]
#>    genre_name YYMM      n
#>    <chr>      <chr> <int>
#>  1 冒險       17-02     1
#>  2 冒險       17-03     1
#>  3 冒險       17-04     2
#>  4 冒險       17-05     1
#>  5 冒險       17-06     3
#>  6 冒險       17-07     4
#>  7 冒險       17-08     2
#>  8 冒險       17-09     1
#>  9 冒險       17-11     1
#> 10 冒險       17-12     2
#> # ... with 109 more rows
…
